<?xml version="1.0" encoding="UTF-8" standalone="no"?>
<svg width="1919px" height="541px" viewBox="0 0 1919 541" version="1.1" xmlns="http://www.w3.org/2000/svg" xmlns:xlink="http://www.w3.org/1999/xlink">
    <!-- Generator: sketchtool 3.7 (28169) - http://www.bohemiancoding.com/sketch -->
    <title>Rectangle 78</title>
    <desc>Created with sketchtool.</desc>
    <defs>
        <linearGradient x1="59.8103841%" y1="-59.3191964%" x2="50%" y2="127.625558%" id="linearGradient-1">
            <stop stop-color="#47A07C" offset="0%"></stop>
            <stop stop-color="#226746" offset="100%"></stop>
        </linearGradient>
    </defs>
    <g id="Page-1" stroke="none" stroke-width="1" fill="none" fill-rule="evenodd">
        <g id="DRB_Landing" transform="translate(-1.000000, -3178.000000)" fill="url(#linearGradient-1)">
            <g id="Group-8" transform="translate(1.000000, 3178.829359)">
                <polygon id="Rectangle-78" points="0 0 1920 100 1920 540 0 440"></polygon>
            </g>
        </g>
    </g>
</svg>