<?xml version="1.0" encoding="UTF-8" standalone="no"?>
<svg width="78px" height="196px" viewBox="0 0 78 196" version="1.1" xmlns="http://www.w3.org/2000/svg" xmlns:xlink="http://www.w3.org/1999/xlink">
    <!-- Generator: Sketch 3.7 (28169) - http://www.bohemiancoding.com/sketch -->
    <title>chevron thin right</title>
    <desc>Created with Sketch.</desc>
    <defs>
        <filter x="-50%" y="-50%" width="200%" height="200%" filterUnits="objectBoundingBox" id="filter-1">
            <feOffset dx="0" dy="2" in="SourceAlpha" result="shadowOffsetOuter1"></feOffset>
            <feGaussianBlur stdDeviation="10" in="shadowOffsetOuter1" result="shadowBlurOuter1"></feGaussianBlur>
            <feColorMatrix values="0 0 0 0 0.250212585   0 0 0 0 0.250212585   0 0 0 0 0.250212585  0 0 0 1 0" type="matrix" in="shadowBlurOuter1" result="shadowMatrixOuter1"></feColorMatrix>
            <feMerge>
                <feMergeNode in="shadowMatrixOuter1"></feMergeNode>
                <feMergeNode in="SourceGraphic"></feMergeNode>
            </feMerge>
        </filter>
    </defs>
    <g id="Page-1" stroke="none" stroke-width="1" fill="none" fill-rule="evenodd" opacity="0.800000012">
        <g id="DRB_popup" transform="translate(-1366.000000, -302.000000)" fill="#FFFFFF">
            <g id="Group-24" filter="url(#filter-1)" transform="translate(475.000000, 147.000000)">
                <g id="chevron-thin-right" transform="translate(910.000000, 171.000000)">
                    <g id="Chevron_thin_right">
                        <path d="M31.818476,80.2616271 L0.871086036,11.0247181 C-0.290362012,8.50531572 -0.290362012,4.42761636 0.871086036,1.88955176 C2.03253408,-0.629850588 3.90905276,-0.629850588 5.07050081,1.88955176 L39.0038524,75.6800473 C40.1653004,78.2087808 40.1653004,82.2958113 39.0038524,84.8152136 L5.07050081,158.605709 C3.90905276,161.134443 2.03253408,161.125112 0.871086036,158.605709 C-0.290362012,156.095638 -0.290362012,152.008607 0.871086036,149.470543 L31.818476,80.2616271 L31.818476,80.2616271 Z" id="Shape"></path>
                    </g>
                </g>
            </g>
        </g>
    </g>
</svg>