<?xml version="1.0" encoding="UTF-8" standalone="no"?>
<svg width="40px" height="40px" viewBox="0 0 40 40" version="1.1" xmlns="http://www.w3.org/2000/svg" xmlns:xlink="http://www.w3.org/1999/xlink">
    <!-- Generator: Sketch 3.7 (28169) - http://www.bohemiancoding.com/sketch -->
    <title>Group 3</title>
    <desc>Created with Sketch.</desc>
    <defs></defs>
    <g id="Page-1" stroke="none" stroke-width="1" fill="none" fill-rule="evenodd">
        <g id="DRB_popup" transform="translate(-1549.000000, -1515.000000)">
            <g id="Group-3" transform="translate(1549.000000, 1515.000000)">
                <rect id="Rectangle-268" fill="#FFFFFF" x="0" y="0" width="40" height="40"></rect>
                <g id="cross" transform="translate(11.000000, 11.000000)" fill="#404040">
                    <g id="Layer_1">
                        <path d="M11.1794219,9.5 L18.6520625,2.0270625 C19.1157812,1.56334375 19.1157812,0.811359375 18.6520625,0.3479375 C18.1883437,-0.11578125 17.4366562,-0.11578125 16.9729375,0.3479375 L9.5,7.82057813 L2.02735937,0.3479375 C1.56364062,-0.11578125 0.81165625,-0.11578125 0.3479375,0.3479375 C-0.11578125,0.81165625 -0.11578125,1.56364063 0.3479375,2.0270625 L7.820875,9.5 L0.3479375,16.9729375 C-0.11578125,17.4366563 -0.11578125,18.1886406 0.3479375,18.6520625 C0.579796875,18.8839219 0.883796875,19 1.1875,19 C1.49120312,19 1.7955,18.8839219 2.02735937,18.6520625 L9.5,11.1794219 L16.9729375,18.6520625 C17.2047969,18.8839219 17.5087969,19 17.8125,19 C18.1162031,19 18.4205,18.8839219 18.6520625,18.6520625 C19.1157812,18.1883438 19.1157812,17.4363594 18.6520625,16.9729375 L11.1794219,9.5 L11.1794219,9.5 Z" id="Shape"></path>
                    </g>
                </g>
            </g>
        </g>
    </g>
</svg>