<?xml version="1.0" encoding="UTF-8" standalone="no"?>
<svg width="1920px" height="700px" viewBox="0 0 1920 700" version="1.1" xmlns="http://www.w3.org/2000/svg" xmlns:xlink="http://www.w3.org/1999/xlink">
    <!-- Generator: sketchtool 3.7 (28169) - http://www.bohemiancoding.com/sketch -->
    <title>Rectangle 57</title>
    <desc>Created with sketchtool.</desc>
    <defs></defs>
    <g id="Page-1" stroke="none" stroke-width="1" fill="none" fill-rule="evenodd" opacity="0.700000048">
        <g id="DRB_Landing" transform="translate(0.000000, -100.000000)" fill="#404040">
            <g id="Group-26" transform="translate(0.000000, 100.000000)">
                <rect id="Rectangle-57" x="0" y="0" width="1920" height="700"></rect>
            </g>
        </g>
    </g>
</svg>