<?xml version="1.0" encoding="UTF-8" standalone="no"?>
<svg width="46px" height="47px" viewBox="0 0 46 47" version="1.1" xmlns="http://www.w3.org/2000/svg" xmlns:xlink="http://www.w3.org/1999/xlink">
    <!-- Generator: sketchtool 3.7 (28169) - http://www.bohemiancoding.com/sketch -->
    <title>1477412780_instagram</title>
    <desc>Created with sketchtool.</desc>
    <defs>
        <linearGradient x1="53.7071815%" y1="-62.9952567%" x2="50%" y2="138.98577%" id="linearGradient-1">
            <stop stop-color="#F8BD4E" offset="0%"></stop>
            <stop stop-color="#EF8826" offset="100%"></stop>
        </linearGradient>
    </defs>
    <g id="Page-1" stroke="none" stroke-width="1" fill="none" fill-rule="evenodd">
        <g id="DRB_Landing" transform="translate(-985.000000, -5927.000000)" fill="url(#linearGradient-1)">
            <g id="Group-20" transform="translate(796.000000, 5927.000000)">
                <g id="1477412780_instagram" transform="translate(189.000000, 0.000000)">
                    <g id="svg2">
                        <g id="g3356" transform="translate(0.000000, 0.794691)">
                            <path d="M0,41.3411409 L0,4.17605485 C0,1.88509556 1.85313336,0.0223879949 4.13652586,0.0223879949 L41.1557911,0.0223879949 C43.437296,0.0223879949 45.2923165,1.88509556 45.2923165,4.17605485 L45.2923165,41.3411409 C45.2923165,43.6339953 43.437296,45.4948078 41.1557911,45.4948078 L4.13652586,45.4948078 C1.85313336,45.4948078 0,43.6339953 0,41.3411409 L0,41.3411409 Z M43.8769902,41.3411409 L43.8769902,4.17605485 C43.8769902,2.67148696 42.6541493,1.44357868 41.1557911,1.44357868 L4.13652586,1.44357868 C2.63628046,1.44357868 1.41532587,2.67148696 1.41532587,4.17605485 L1.41532587,41.3411409 C1.41532587,42.8476031 2.63628046,44.073617 4.13652586,44.073617 L41.1557911,44.073617 C42.6541493,44.073617 43.8769902,42.8476031 43.8769902,41.3411409 L43.8769902,41.3411409 Z" id="path3358"></path>
                            <path d="M7.07851667,32.9163214 L7.07851667,12.5970835 C7.07851667,9.57468484 9.52231276,7.11886715 12.5341263,7.11886715 L32.7770614,7.11886715 C35.7869875,7.11886715 38.2326705,9.57468484 38.2326705,12.5970835 L38.2326705,32.9163214 C38.2326705,35.940616 35.7869875,38.3945387 32.7770614,38.3945387 L12.5341263,38.3945387 C9.52231276,38.3945387 7.07851667,35.940616 7.07851667,32.9163214 L7.07851667,32.9163214 Z M36.8173453,32.9163214 L36.8173453,12.5970835 C36.8173453,10.3610774 35.0038407,8.54005784 32.7770614,8.54005784 L12.5341263,8.54005784 C12.445433,8.54005784 12.3567385,8.54384756 12.269932,8.54953213 L12.7398202,8.54953213 L12.7398202,17.0747826 L11.3226074,17.0747826 L11.3207203,8.72765454 C9.68271635,9.24496804 8.49384265,10.7855394 8.49384265,12.5970835 L8.49384265,17.0766774 L36.7984741,17.0766774 L36.7984741,18.4959732 L8.49384265,18.4959732 L8.49384265,32.9163214 C8.49384265,35.1542238 10.3054598,36.9733479 12.5341263,36.9733479 L32.7770614,36.9733479 C35.0038407,36.9733479 36.8173453,35.1542238 36.8173453,32.9163214 L36.8173453,32.9163214 Z M15.5648114,27.0269071 C15.5648114,23.104421 18.7389155,19.9190588 22.6471022,19.9190588 C26.553401,19.9190588 29.729393,23.104421 29.729393,27.0269071 C29.729393,30.9512892 26.553401,34.1347562 22.6471022,34.1347562 C18.7389155,34.1347562 15.5648114,30.9512892 15.5648114,27.0269071 L15.5648114,27.0269071 Z M28.3140667,27.0269071 C28.3140667,23.8908135 25.7740289,21.3402495 22.6471022,21.3402495 C19.5182876,21.3402495 16.9801366,23.8908135 16.9801366,27.0269071 C16.9801366,30.1648967 19.5182876,32.7135659 22.6471022,32.7135659 C25.7740289,32.7135659 28.3140667,30.1648967 28.3140667,27.0269071 L28.3140667,27.0269071 Z M18.4124462,27.0193277 C18.4124462,24.6734152 20.3089837,22.7652299 22.6471022,22.7652299 C24.9833328,22.7652299 26.8817571,24.6734152 26.8817571,27.0193277 C26.8817571,29.367135 24.9833328,31.2734254 22.6471022,31.2734254 C20.3089837,31.2734254 18.4124462,29.367135 18.4124462,27.0193277 L18.4124462,27.0193277 Z M25.4664308,27.0193277 C25.4664308,25.456018 24.200186,24.1864206 22.6471022,24.1864206 C21.0921305,24.1864206 19.8277725,25.456018 19.8277725,27.0193277 C19.8277725,28.5845322 21.0921305,29.8522348 22.6471022,29.8522348 C24.200186,29.8522348 25.4664308,28.5845322 25.4664308,27.0193277 L25.4664308,27.0193277 Z M14.1551466,17.0747826 L14.1551466,8.54953213 L15.5723597,8.54953213 L15.5723597,17.0747826 L14.1551466,17.0747826 L14.1551466,17.0747826 Z M16.9839113,17.0747826 L16.9839113,8.54953213 L18.4011244,8.54953213 L18.4011244,17.0747826 L16.9839113,17.0747826 L16.9839113,17.0747826 Z M28.3159535,12.8150002 C28.3159535,11.2497946 29.5727632,9.96314339 31.1352832,9.96314339 C32.6959164,9.96314339 33.9546129,11.2497946 33.9546129,12.8150002 C33.9546129,14.3820996 32.6959164,15.6668559 31.1352832,15.6668559 C29.5727632,15.6668559 28.3159535,14.3820996 28.3159535,12.8150002 L28.3159535,12.8150002 Z M32.5392866,12.8150002 C32.5392866,12.0210282 31.9014467,11.3843341 31.1352832,11.3843341 C30.3672329,11.3843341 29.7312798,12.0210282 29.7312798,12.8150002 C29.7312798,13.610867 30.3672329,14.2456652 31.1352832,14.2456652 C31.9014467,14.2456652 32.5392866,13.610867 32.5392866,12.8150002 L32.5392866,12.8150002 Z" id="path3360"></path>
                        </g>
                    </g>
                </g>
            </g>
        </g>
    </g>
</svg>