<?xml version="1.0" encoding="UTF-8" standalone="no"?>
<svg width="50px" height="62px" viewBox="0 0 50 62" version="1.1" xmlns="http://www.w3.org/2000/svg" xmlns:xlink="http://www.w3.org/1999/xlink">
    <!-- Generator: sketchtool 3.7 (28169) - http://www.bohemiancoding.com/sketch -->
    <title>1477689343_icon-15-trophy</title>
    <desc>Created with sketchtool.</desc>
    <defs>
        <linearGradient x1="53.7071815%" y1="-62.9952567%" x2="50%" y2="138.98577%" id="linearGradient-1">
            <stop stop-color="#F8BD4E" offset="0%"></stop>
            <stop stop-color="#EF8826" offset="100%"></stop>
        </linearGradient>
    </defs>
    <g id="Page-1" stroke="none" stroke-width="1" fill="none" fill-rule="evenodd">
        <g id="DRB_Landing" transform="translate(-745.000000, -3858.000000)" fill="url(#linearGradient-1)">
            <g id="1477689343_icon-15-trophy" transform="translate(745.000000, 3858.000000)">
                <g id="Group">
                    <g id="Page-1">
                        <g id="icon-15-trophy">
                            <path d="M35.7142857,52.4615385 L35.7142857,45.3076923 L26.1904762,45.3076923 L26.1904762,35.7692258 L26.1904762,35.7692253 C34.081429,35.7624062 40.4761905,29.370196 40.4761905,21.4780753 L40.4761905,21.4615385 C48.8095238,17.8846154 50,0 50,0 L40.4761905,0 L39.3049695,0 L9.52380952,0 L0,0 C0,0 1.19047619,17.8846154 9.52380952,21.4615385 L9.52380952,21.4780753 C9.52380952,29.3666451 15.9303107,35.7623922 23.8095238,35.7692253 L23.8095238,45.3076923 L23.8095238,45.3076923 L14.2857143,45.3076923 L14.2857143,52.4615385 L7.14285714,52.4615385 L7.14285714,62 L42.8571429,62 L42.8571429,52.4615385 L35.7142857,52.4615385 L35.7142857,52.4615385 L35.7142857,52.4615385 Z M11.9047619,2.38461538 L11.9047619,21.4435487 C11.9047619,28.0384176 17.236364,33.3846154 23.8121398,33.3846154 L26.1878602,33.3846154 C32.7641236,33.3846154 38.0952381,28.0555253 38.0952381,21.4435487 L38.0952381,2.38461538 L11.9047619,2.38461538 L11.9047619,2.38461538 L11.9047619,2.38461538 Z M9.52380952,2.38461538 L9.52380952,18.838447 C3.93851143,14.8338388 2.61906214,2.38461538 2.61906214,2.38461538 L9.52380952,2.38461538 L9.52380952,2.38461538 L9.52380952,2.38461538 Z M40.4343379,2.38461538 L40.4343379,18.7915087 C46.019636,14.7869004 47.3400298,2.38461538 47.3400298,2.38461538 L40.4343379,2.38461538 L40.4343379,2.38461538 L40.4343379,2.38461538 Z M16.6666667,47.6923077 L16.6666667,52.4615385 L33.3333333,52.4615385 L33.3333333,47.6923077 L16.6666667,47.6923077 L16.6666667,47.6923077 L16.6666667,47.6923077 Z M9.52380952,54.8461538 L9.52380952,59.6153846 L40.4761905,59.6153846 L40.4761905,54.8461538 L9.52380952,54.8461538 L9.52380952,54.8461538 L9.52380952,54.8461538 Z" id="trophy"></path>
                        </g>
                    </g>
                </g>
            </g>
        </g>
    </g>
</svg>